…
We can extract the signatures inside each polygon with `extract_signatures`. This method returns a `RasterTable`, which is a special type optimized for extracting
tablular data from a raster data source. Because `RasterTable` implements the `Tables.jl` interface, it can be directly sunk into other table constructors, such as 
`DataFrames`, and is also compatible with external libraries like `TableOperations.jl`.

```julia
sigs = extract_signatures(landsat, shp, :C_name) |> DataFrame
```

```
1925×8 DataFrame
  Row │ B1         B2         B3        B4        B5        B6        B7        label     
      │ Float32    Float32    Float32   Float32   Float32   Float32   Float32   String    
──────┼───────────────────────────────────────────────────────────────────────────────────
    1 │ 0.057235   0.10547    0.188932  0.24847   0.513405  0.315323  0.166107  Hail Scar
    2 │ 0.0574     0.105415   0.188712  0.24946   0.513735  0.317908  0.167593  Hail Scar
    3 │ 0.0584175  0.107175   0.19182   0.253887  0.515577  0.319585  0.168087  Hail Scar
    4 │ 0.0583625  0.10723    0.190995  0.253393  0.514615  0.317715  0.167097  Hail Scar
    5 │ 0.05806    0.10745    0.189895  0.250368  0.50774   0.315048  0.165475  Hail Scar
    6 │ 0.05553    0.102885   0.184175  0.243272  0.498417  0.307485  0.160938  Hail Scar
    7 │ 0.05267    0.0983475  0.176585  0.230073  0.48783   0.29159   0.153292  Hail Scar
  ⋮   │     ⋮          ⋮         ⋮         ⋮         ⋮         ⋮         ⋮          ⋮
 1919 │ 0.0320725  0.05993    0.11306   0.127415  0.272258  0.27322   0.220777  Built Up
 1920 │ 0.100575   0.127168   0.199218  0.23164   0.285677  0.323985  0.258645  Built Up
 1921 │ 0.077145   0.112097   0.17081   0.19677   0.25705   0.320877  0.28015   Built Up
 1922 │ 0.10712    0.136765   0.19666   0.225068  0.268655  0.33284   0.302288  Built Up
 1923 │ 0.0856425  0.123235   0.185853  0.211675  0.273     0.373623  0.351072  Built Up
 1924 │ 0.088145   0.119578   0.17059   0.204442  0.27487   0.355857  0.325553  Built Up
 1925 │ 0.0518725  0.0816275  0.148673  0.15189   0.28774   0.309218  0.29786   Built Up
                                                                         1911 rows omitted
```
…
