Home · RemoteSensingToolbox.jl
…
julia> landsat = Landsat8("data/LC08_L2SP_043024_20200802_20200914_02_T1/") |> dn_to_reflectance;

julia> shp = Shapefile.Table("data/landcover/landcover.shp") |> DataFrame;

julia> labelled_signatures(landsat, shp, :cover)
2860×8 DataFrame
  Row │ B1         B2         B3         B4         B5        B6        B7        label      
      │ Float32    Float32    Float32    Float32    Float32   Float32   Float32   String     
──────┼──────────────────────────────────────────────────────────────────────────────────────
    1 │ 0.0514875  0.073845   0.119742   0.128817   0.2466    0.256005  0.221905  Built Up
    2 │ 0.0759625  0.10228    0.152963   0.170865   0.27575   0.300115  0.26387   Built Up
    3 │ 0.113747   0.134263   0.212747   0.237497   0.32756   0.32041   0.28851   Built Up
    4 │ 0.09359    0.117955   0.18522    0.19743    0.302453  0.3148    0.277125  Built Up
    5 │ 0.0793725  0.104507   0.133658   0.1377     0.311555  0.2873    0.23824   Built Up
    6 │ 0.0641375  0.086      0.11724    0.115315   0.353272  0.291755  0.221878  Built Up
    7 │ 0.240688   0.271735   0.254245   0.299648   0.376895  0.500067  0.460797  Built Up
    8 │ 0.06554    0.0865225  0.14265    0.16245    0.272478  0.283697  0.238515  Built Up
    9 │ 0.0979625  0.131732   0.190747   0.230402   0.312793  0.369112  0.327148  Built Up
  ⋮   │     ⋮          ⋮          ⋮          ⋮         ⋮         ⋮         ⋮          ⋮
 2853 │ 0.0355925  0.0422475  0.0688675  0.0711225  0.24385   0.287245  0.180792  Bare Earth
 2854 │ 0.0494525  0.05674    0.0867975  0.09612    0.277703  0.311665  0.192728  Bare Earth
 2855 │ 0.0473075  0.053      0.0815725  0.0860825  0.264998  0.291672  0.183075  Bare Earth
 2856 │ 0.04673    0.05267    0.08039    0.083195   0.25716   0.285787  0.184175  Bare Earth
 2857 │ 0.0465925  0.05289    0.0809675  0.0854225  0.268627  0.299345  0.189565  Bare Earth
 2858 │ 0.0471975  0.052835   0.08094    0.0856975  0.266097  0.302783  0.189097  Bare Earth
 2859 │ 0.0453275  0.050745   0.075055   0.0795925  0.247095  0.293323  0.185962  Bare Earth
 2860 │ 0.036335   0.0434025  0.06884    0.070985   0.2422    0.282845  0.179995  Bare Earth
                                                                            2843 rows omitted
…
julia> landsat = Landsat8("data/LC08_L2SP_043024_20200802_20200914_02_T1/");

julia> stack2df(landsat.stack)
40483825×7 DataFrame
      Row │ B1      B2      B3      B4      B5      B6      B7     
          │ UInt16  UInt16  UInt16  UInt16  UInt16  UInt16  UInt16 
──────────┼────────────────────────────────────────────────────────
        1 │   8348    8345    8798    8216   14454   11201    9070
        2 │   7990    8064    8707    8106   15583   11652    9376
        3 │   8180    8247    8858    8135   17552   12097    9386
        4 │   8400    8362    8952    8262   17836   12772    9797
        5 │   8447    8398    9088    8284   20507   12857    9901
        6 │   8375    8337    8818    8190   16348   12237    9662
        7 │   7742    8005    8915    8257   16683   12465    9862
        8 │   7996    8152    9002    8530   16328   13528   10526
        9 │   8178    8213    8887    8513   17244   13059   10282
    ⋮     │   ⋮       ⋮       ⋮       ⋮       ⋮       ⋮       ⋮
 40483818 │   8609    8835    9707    9924   16742   16214   12380
 40483819 │   8520    8662    9578    9722   16355   15326   11816
 40483820 │   8484    8646    9539    9517   16800   15304   11735
 40483821 │   8645    8854    9775   10064   16739   16707   12667
 40483822 │   8454    8596    9515    9455   17095   15065   11488
 40483823 │   8586    8863    9867   10164   16688   16382   12640
 40483824 │   8601    8823    9684   10050   16210   16211   12439
 40483825 │   8700    8934    9898   10324   16947   16727   12722
                                              40483808 rows omitted
…
